=====================chatwoot/app/javascript/shared/components/FluentIcon/dashboard-icons.json
 
Campaigns "M4 3h1c1.054 0 1.918.816 1.995 1.85L7 5v14a2.001 2.001 0 0 1-1.85 1.994L5 21H4a2.001 2.001 0 0 1-1.995-1.85L2 19V5c0-1.054.816-1.918 1.85-1.995L4 3h1-1Zm6 0h1c1.054 0 1.918.816 1.995 1.85L13 5v14a2.001 2.001 0 0 1-1.85 1.994L11 21h-1a2.001 2.001 0 0 1-1.995-1.85L8 19V5c0-1.054.816-1.918 1.85-1.995L10 3h1-1Zm6.974 2c.84 0 1.608.531 1.89 1.346l.047.157 3.015 11.745a2 2 0 0 1-1.296 2.392l-.144.043-.969.248a2.002 2.002 0 0 1-2.387-1.284l-.047-.155-3.016-11.745a2 2 0 0 1 1.298-2.392l.143-.043.968-.248c.166-.043.334-.064.498-.064ZM5 4.5H4a.501.501 0 0 0-.492.41L3.5 5v14c0 .244.177.45.41.492L4 19.5h1c.245 0 .45-.178.492-.41L5.5 19V5a.501.501 0 0 0-.41-.492L5 4.5Zm6 0h-1a.501.501 0 0 0-.492.41L9.5 5v14c0 .244.177.45.41.492l.09.008h1c.245 0 .45-.178.492-.41L11.5 19V5a.501.501 0 0 0-.41-.492L11 4.5Zm5.975 2-.063.004-.063.013-.968.247a.498.498 0 0 0-.376.51l.015.1 3.016 11.745a.5.5 0 0 0 .483.375l.063-.003.062-.012.97-.25a.5.5 0 0 0 .374-.519l-.015-.088-3.015-11.747a.501.501 0 0 0-.483-.375Z",
Help center "megaphone-outline": "M21.907 5.622c.062.208.093.424.093.641V17.74a2.25 2.25 0 0 1-2.891 2.156l-5.514-1.64a4.002 4.002 0 0 1-7.59-1.556L6 16.5l-.001-.5-2.39-.711A2.25 2.25 0 0 1 2 13.131V10.87a2.25 2.25 0 0 1 1.61-2.156l15.5-4.606a2.25 2.25 0 0 1 2.797 1.515ZM7.499 16.445l.001.054a2.5 2.5 0 0 0 4.624 1.321l-4.625-1.375Zm12.037-10.9-15.5 4.605a.75.75 0 0 0-.536.72v2.261a.75.75 0 0 0 .536.72l15.5 4.607a.75.75 0 0 0 .964-.72V6.264a.75.75 0 0 0-.964-.719Z",
"alert-outline": "M12 1.996a7.49 7.49 0 0 1 7.496 7.25l.004.25v4.097l1.38 3.156a1.25 1.25 0 0 1-1.145 1.75L15 18.502a3 3 0 0 1-5.995.177L9 18.499H4.275a1.251 1.251 0 0 1-1.147-1.747L4.5 13.594V9.496c0-4.155 3.352-7.5 7.5-7.5ZM13.5 18.5l-3 .002a1.5 1.5 0 0 0 2.993.145l.006-.147ZM12 3.496c-3.32 0-6 2.674-6 6v4.41L4.656 17h14.697L18 13.907V9.509l-.004-.225A5.988 5.988 0 0 0 12 3.496Z",
"mail-outline": "M5.25 4h13.5a3.25 3.25 0 0 1 3.245 3.066L22 7.25v9.5a3.25 3.25 0 0 1-3.066 3.245L18.75 20H5.25a3.25 3.25 0 0 1-3.245-3.066L2 16.75v-9.5a3.25 3.25 0 0 1 3.066-3.245L5.25 4h13.5-13.5ZM20.5 9.373l-8.15 4.29a.75.75 0 0 1-.603.043l-.096-.042L3.5 9.374v7.376a1.75 1.75 0 0 0 1.606 1.744l.144.006h13.5a1.75 1.75 0 0 0 1.744-1.607l.006-.143V9.373ZM18.75 5.5H5.25a1.75 1.75 0 0 0-1.744 1.606L3.5 7.25v.429l8.5 4.473 8.5-4.474V7.25a1.75 1.75 0 0 0-1.607-1.744L18.75 5.5Z",
"mention-outline": "M22 12v1.75a3.75 3.75 0 0 1-7.149 1.586C14.033 16.356 12.84 17 11.5 17 8.992 17 7 14.742 7 12s1.992-5 4.5-5c1.159 0 2.208.482 3.001 1.272L14.5 7.75a.75.75 0 0 1 1.493-.102L16 7.75v6a2.25 2.25 0 0 0 4.495.154l.005-.154V12a8.5 8.5 0 1 0-5.515 7.961.75.75 0 0 1 .527 1.405A9.98 9.98 0 0 1 12 22C6.477 22 2 17.523 2 12S6.477 2 12 2c5.43 0 9.848 4.327 9.996 9.72L22 12v1.75V12ZM11.5 8.5c-1.635 0-3 1.548-3 3.5s1.365 3.5 3 3.5c1.634 0 3-1.548 3-3.5s-1.366-3.5-3-3.5Z",
person-add-outline": "M17.5 12a5.5 5.5 0 1 1 0 11a5.5 5.5 0 0 1 0-11zm-5.477 2a6.47 6.47 0 0 0-.709 1.5H4.253a.749.749 0 0 0-.75.75v.577c0 .535.192 1.053.54 1.46c1.253 1.469 3.22 2.214 5.957 2.214c.597 0 1.157-.035 1.68-.106c.246.495.553.954.912 1.367c-.795.16-1.66.24-2.592.24c-3.146 0-5.532-.906-7.098-2.74a3.75 3.75 0 0 1-.898-2.435v-.578A2.249 2.249 0 0 1 4.253 14h7.77zm5.477 0l-.09.008a.5.5 0 0 0-.402.402L17 14.5V17h-2.496l-.09.008a.5.5 0 0 0-.402.402l-.008.09l.008.09a.5.5 0 0 0 .402.402l.09.008H17L17 20.5l.008.09a.5.5 0 0 0 .402.402l.09.008l.09-.008a.5.5 0 0 0 .402-.402L18 20.5V18h2.504l.09-.008a.5.5 0 0 0 .402-.402l.008-.09l-.008-.09a.5.5 0 0 0-.402-.402l-.09-.008H18L18 14.5l-.008-.09a.5.5 0 0 0-.402-.402L17.5 14zM10 2.005a5 5 0 1 1 0 10a5 5 0 0 1 0-10zm0 1.5a3.5 3.5 0 1 0 0 7a3.5 3.5 0 0 0 0-7z",
"upload-outline": "M6.087 7.75a5.752 5.752 0 0 1 11.326 0h.087a4 4 0 0 1 3.962 4.552 6.534 6.534 0 0 0-1.597-1.364A2.501 2.501 0 0 0 17.5 9.25h-.756a.75.75 0 0 1-.75-.713 4.25 4.25 0 0 0-8.489 0 .75.75 0 0 1-.749.713H6a2.5 2.5 0 0 0 0 5h4.4a6.458 6.458 0 0 0-.357 1.5H6a4 4 0 0 1 0-8h.087ZM22 16.5a5.5 5.5 0 1 1-11 0 5.5 5.5 0 0 1 11 0Zm-6-1.793V19.5a.5.5 0 0 0 1 0v-4.793l1.646 1.647a.5.5 0 0 0 .708-.708l-2.5-2.5a.5.5 0 0 0-.708 0l-2.5 2.5a.5.5 0 0 0 .708.708L16 14.707Z",
"download-outline": "M6.087 7.75a5.752 5.752 0 0 1 11.326 0h.087a4 4 0 0 1 3.962 4.552 6.534 6.534 0 0 0-1.597-1.364A2.501 2.501 0 0 0 17.5 9.25h-.756a.75.75 0 0 1-.75-.713 4.25 4.25 0 0 0-8.489 0 .75.75 0 0 1-.749.713H6a2.5 2.5 0 0 0 0 5h4.4a6.458 6.458 0 0 0-.357 1.5H6a4 4 0 0 1 0-8h.087ZM22 16.5a5.5 5.5 0 1 0-11 0 5.5 5.5 0 0 0 11 0Zm-6-3a.5.5 0 0 1 1 0v4.793l1.646-1.647a.5.5 0 0 1 .708.708l-2.5 2.5a.5.5 0 0 1-.708 0l-2.5-2.5a.5.5 0 0 1 .708-.708L16 18.293V13.5Z",
"emoji-outline": "M12 1.999c5.524 0 10.002 4.478 10.002 10.002 0 5.523-4.478 10.001-10.002 10.001-5.524 0-10.002-4.478-10.002-10.001C1.998 6.477 6.476 1.999 12 1.999Zm0 1.5a8.502 8.502 0 1 0 0 17.003A8.502 8.502 0 0 0 12 3.5ZM8.462 14.784A4.491 4.491 0 0 0 12 16.502a4.492 4.492 0 0 0 3.535-1.714.75.75 0 1 1 1.177.93A5.991 5.991 0 0 1 12 18.002a5.991 5.991 0 0 1-4.716-2.29.75.75 0 0 1 1.178-.928ZM9 8.75a1.25 1.25 0 1 1 0 2.499A1.25 1.25 0 0 1 9 8.75Zm6 0a1.25 1.25 0 1 1 0 2.499 1.25 1.25 0 0 1 0-2.499Z",
"people-outline": "M4 13.999 13 14a2 2 0 0 1 1.995 1.85L15 16v1.5C14.999 21 11.284 22 8.5 22c-2.722 0-6.335-.956-6.495-4.27L2 17.5v-1.501c0-1.054.816-1.918 1.85-1.995L4 14ZM15.22 14H20c1.054 0 1.918.816 1.994 1.85L22 16v1c-.001 3.062-2.858 4-5 4a7.16 7.16 0 0 1-2.14-.322c.336-.386.607-.827.802-1.327A6.19 6.19 0 0 0 17 19.5l.267-.006c.985-.043 3.086-.363 3.226-2.289L20.5 17v-1a.501.501 0 0 0-.41-.492L20 15.5h-4.051a2.957 2.957 0 0 0-.595-1.34L15.22 14H20h-4.78ZM4 15.499l-.1.01a.51.51 0 0 0-.254.136.506.506 0 0 0-.136.253l-.01.101V17.5c0 1.009.45 1.722 1.417 2.242.826.445 2.003.714 3.266.753l.317.005.317-.005c1.263-.039 2.439-.308 3.266-.753.906-.488 1.359-1.145 1.412-2.057l.005-.186V16a.501.501 0 0 0-.41-.492L13 15.5l-9-.001ZM8.5 3a4.5 4.5 0 1 1 0 9 4.5 4.5 0 0 1 0-9Zm9 2a3.5 3.5 0 1 1 0 7 3.5 3.5 0 0 1 0-7Zm-9-.5c-1.654 0-3 1.346-3 3s1.346 3 3 3 3-1.346 3-3-1.346-3-3-3Zm9 2c-1.103 0-2 .897-2 2s.897 2 2 2 2-.897 2-2-.897-2-2-2Z",
"keyboard-outline": "M19.745 5a2.25 2.25 0 0 1 2.25 2.25v9.505a2.25 2.25 0 0 1-2.25 2.25H4.25A2.25 2.25 0 0 1 2 16.755V7.25A2.25 2.25 0 0 1 4.25 5h15.495Zm0 1.5H4.25a.75.75 0 0 0-.75.75v9.505c0 .414.336.75.75.75h15.495a.75.75 0 0 0 .75-.75V7.25a.75.75 0 0 0-.75-.75Zm-12.995 8h10.5a.75.75 0 0 1 .102 1.493L17.25 16H6.75a.75.75 0 0 1-.102-1.493l.102-.007h10.5-10.5ZM16.5 11a1 1 0 1 1 0 2 1 1 0 0 1 0-2Zm-5.995 0a1 1 0 1 1 0 2 1 1 0 0 1 0-2Zm-3 0a1 1 0 1 1 0 2 1 1 0 0 1 0-2Zm6 0a1 1 0 1 1 0 2 1 1 0 0 1 0-2ZM6 8a1 1 0 1 1 0 2 1 1 0 0 1 0-2Zm2.995 0a1 1 0 1 1 0 2 1 1 0 0 1 0-2Zm3 0a1 1 0 1 1 0 2 1 1 0 0 1 0-2Zm3 0a1 1 0 1 1 0 2 1 1 0 0 1 0-2Zm3 0a1 1 0 1 1 0 2 1 1 0 0 1 0-2Z",
"person-outline": "M17.754 14a2.249 2.249 0 0 1 2.25 2.249v.575c0 .894-.32 1.76-.902 2.438-1.57 1.834-3.957 2.739-7.102 2.739-3.146 0-5.532-.905-7.098-2.74a3.75 3.75 0 0 1-.898-2.435v-.577a2.249 2.249 0 0 1 2.249-2.25h11.501Zm0 1.5H6.253a.749.749 0 0 0-.75.749v.577c0 .536.192 1.054.54 1.461 1.253 1.468 3.219 2.214 5.957 2.214s4.706-.746 5.962-2.214a2.25 2.25 0 0 0 .541-1.463v-.575a.749.749 0 0 0-.749-.75ZM12 2.004a5 5 0 1 1 0 10 5 5 0 0 1 0-10Zm0 1.5a3.5 3.5 0 1 0 0 7 3.5 3.5 0 0 0 0-7Z",
"person-filled": "M17.754 14a2.249 2.249 0 0 1 2.249 2.25v.918a2.75 2.75 0 0 1-.513 1.598c-1.545 2.164-4.07 3.235-7.49 3.235c-3.421 0-5.944-1.072-7.486-3.236a2.75 2.75 0 0 1-.51-1.596v-.92A2.249 2.249 0 0 1 6.251 14h11.502ZM12 2.005a5 5 0 1 1 0 10a5 5 0 0 1 0-10Z",
"appearance-outline": "M3.839 5.858c2.94-3.916 9.03-5.055 13.364-2.36c4.28 2.66 5.854 7.777 4.1 12.577c-1.655 4.533-6.016 6.328-9.159 4.048c-1.177-.854-1.634-1.925-1.854-3.664l-.106-.987l-.045-.398c-.123-.934-.311-1.352-.705-1.572c-.535-.298-.892-.305-1.595-.033l-.351.146l-.179.078c-1.014.44-1.688.595-2.541.416l-.2-.047l-.164-.047c-2.789-.864-3.202-4.647-.565-8.157Zm.984 6.716l.123.037l.134.03c.439.087.814.015 1.437-.242l.602-.257c1.202-.493 1.985-.54 3.046.05c.917.512 1.275 1.298 1.457 2.66l.053.459l.055.532l.047.422c.172 1.361.485 2.09 1.248 2.644c2.275 1.65 5.534.309 6.87-3.349c1.516-4.152.174-8.514-3.484-10.789c-3.675-2.284-8.899-1.306-11.373 1.987c-2.075 2.763-1.82 5.28-.215 5.816Zm11.225-1.994a1.25 1.25 0 1 1 2.414-.647a1.25 1.25 0 0 1-2.414.647Zm.494 3.488a1.25 1.25 0 1 1 2.415-.647a1.25 1.25 0 0 1-2.415.647ZM14.07 7.577a1.25 1.25 0 1 1 2.415-.647a1.25 1.25 0 0 1-2.415.647Zm-.028 8.998a1.25 1.25 0 1 1 2.414-.647a1.25 1.25 0 0 1-2.414.647Zm-3.497-9.97a1.25 1.25 0 1 1 2.415-.646a1.25 1.25 0 0 1-2.415.646Z",
"content-settings-outline": "m17.751 3 .185.005a3.25 3.25 0 0 1 3.06 3.06l.005.185v5.772a6.468 6.468 0 0 0-1.5-.709L19.5 8H4.501L4.5 17.75a1.75 1.75 0 0 0 1.606 1.744l.144.006h5.064c.172.534.412 1.037.708 1.5H6.25a3.25 3.25 0 0 1-3.245-3.066L3 17.75V6.25a3.25 3.25 0 0 1 3.066-3.245L6.25 3h11.501Zm0 1.5h-11.5a1.75 1.75 0 0 0-1.75 1.75v.25h15v-.25a1.75 1.75 0 0 0-1.75-1.75Zm-7.501 5a.75.75 0 0 1 .743.648l.007.102v7a.75.75 0 0 1-.648.743L10.25 18h-3.5a.75.75 0 0 1-.743-.648L6 17.25v-7a.75.75 0 0 1 .648-.743L6.75 9.5h3.5ZM9.5 11h-2v5.5h2V11Zm8.5-.75a.75.75 0 0 0-.75-.75h-4.496l-.101.007A.75.75 0 0 0 12.754 11h4.496l.102-.007A.75.75 0 0 0 18 10.25Zm-3.72 3.725a2 2 0 0 1-1.442 2.497l-.584.144a5.729 5.729 0 0 0 .006 1.807l.54.13a2 2 0 0 1 1.45 2.51l-.187.632c.44.386.94.699 1.484.921l.494-.518a2 2 0 0 1 2.899 0l.498.525a5.28 5.28 0 0 0 1.483-.913l-.198-.686a2 2 0 0 1 1.442-2.496l.583-.144a5.729 5.729 0 0 0-.006-1.808l-.54-.13a2 2 0 0 1-1.45-2.51l.187-.63a5.28 5.28 0 0 0-1.484-.923l-.493.519a2 2 0 0 1-2.9 0l-.498-.525c-.544.22-1.044.53-1.483.912l.198.686ZM17.5 19c-.8 0-1.45-.672-1.45-1.5 0-.829.65-1.5 1.45-1.5.8 0 1.45.671 1.45 1.5 0 .828-.65 1.5-1.45 1.5Z",
"power-outline": "M8.204 4.82a.75.75 0 0 1 .634 1.36A7.51 7.51 0 0 0 4.5 12.991c0 4.148 3.358 7.51 7.499 7.51s7.499-3.362 7.499-7.51a7.51 7.51 0 0 0-4.323-6.804.75.75 0 1 1 .637-1.358 9.01 9.01 0 0 1 5.186 8.162c0 4.976-4.029 9.01-9 9.01C7.029 22 3 17.966 3 12.99a9.01 9.01 0 0 1 5.204-8.17ZM12 2.496a.75.75 0 0 1 .743.648l.007.102v7.5a.75.75 0 0 1-1.493.102l-.007-.102v-7.5a.75.75 0 0 1 .75-.75Z",
"arrow-trending-lines-outline": "M16.749 2h4.554l.1.014.099.028.06.026c.08.034.153.085.219.15l.04.044.044.057.054.09.039.09.019.064.014.064.009.095v4.532a.75.75 0 0 1-1.493.102l-.007-.102V4.559l-6.44 6.44a.75.75 0 0 1-.976.073L13 11 9.97 8.09l-5.69 5.689a.75.75 0 0 1-1.133-.977l.073-.084 6.22-6.22a.75.75 0 0 1 .976-.072l.084.072 3.03 2.91L19.438 3.5h-2.69a.75.75 0 0 1-.742-.648l-.007-.102a.75.75 0 0 1 .648-.743L16.75 2ZM3.75 17a.75.75 0 0 1 .75.75v3.5a.75.75 0 0 1-1.5 0v-3.5a.75.75 0 0 1 .75-.75Zm5.75-3.25a.75.75 0 0 0-1.5 0v7.5a.75.75 0 0 0 1.5 0v-7.5ZM13.75 15a.75.75 0 0 1 .75.75v5.5a.75.75 0 0 1-1.5 0v-5.5a.75.75 0 0 1 .75-.75Zm5.75-4.25a.75.75 0 0 0-1.5 0v10.5a.75.75 0 0 0 1.5 0v-10.5Z",
"mention-outline": "M12,0a12,12,0,1,0,7.092,21.681l-1.775-2.419A9,9,0,1,1,21,12v1.5a1.5,1.5,0,0,1-3,0V12a6.023,6.023,0,1,0-1.922,4.388A4.48,4.48,0,0,0,24,13.5V12A12.013,12.013,0,0,0,12,0Zm0,15a3,3,0,1,1,3-3A3,3,0,0,1,12,15Z",
"mail-unread-outline": "M16 6.5H5.25a1.75 1.75 0 0 0-1.744 1.606l-.004.1L11 12.153l6.03-3.174a3.489 3.489 0 0 0 2.97.985v6.786a3.25 3.25 0 0 1-3.066 3.245L16.75 20H5.25a3.25 3.25 0 0 1-3.245-3.066L2 16.75v-8.5a3.25 3.25 0 0 1 3.066-3.245L5.25 5h11.087A3.487 3.487 0 0 0 16 6.5Zm2.5 3.399-7.15 3.765a.75.75 0 0 1-.603.042l-.096-.042L3.5 9.9v6.85a1.75 1.75 0 0 0 1.606 1.744l.144.006h11.5a1.75 1.75 0 0 0 1.744-1.607l.006-.143V9.899ZM19.5 4a2.5 2.5 0 1 1 0 5 2.5 2.5 0 0 1 0-5Z",


====================chatwoot/app/javascript/dashboard/routes/dashboard/commands/CommandBarIcons.js
export const ICON_APPEARANCE = `<svg role="img" class="ninja-icon ninja-icon--fluent" xmlns="http://www.w3.org/2000/svg" width="18" height="18" viewBox="0 0 24 24"><path fill="currentColor" d="M3.839 5.858c2.94-3.916 9.03-5.055 13.364-2.36c4.28 2.66 5.854 7.777 4.1 12.577c-1.655 4.533-6.016 6.328-9.159 4.048c-1.177-.854-1.634-1.925-1.854-3.664l-.106-.987l-.045-.398c-.123-.934-.311-1.352-.705-1.572c-.535-.298-.892-.305-1.595-.033l-.351.146l-.179.078c-1.014.44-1.688.595-2.541.416l-.2-.047l-.164-.047c-2.789-.864-3.202-4.647-.565-8.157Zm.984 6.716l.123.037l.134.03c.439.087.814.015 1.437-.242l.602-.257c1.202-.493 1.985-.54 3.046.05c.917.512 1.275 1.298 1.457 2.66l.053.459l.055.532l.047.422c.172 1.361.485 2.09 1.248 2.644c2.275 1.65 5.534.309 6.87-3.349c1.516-4.152.174-8.514-3.484-10.789c-3.675-2.284-8.899-1.306-11.373 1.987c-2.075 2.763-1.82 5.28-.215 5.816Zm11.225-1.994a1.25 1.25 0 1 1 2.414-.647a1.25 1.25 0 0 1-2.414.647Zm.494 3.488a1.25 1.25 0 1 1 2.415-.647a1.25 1.25 0 0 1-2.415.647ZM14.07 7.577a1.25 1.25 0 1 1 2.415-.647a1.25 1.25 0 0 1-2.415.647Zm-.028 8.998a1.25 1.25 0 1 1 2.414-.647a1.25 1.25 0 0 1-2.414.647Zm-3.497-9.97a1.25 1.25 0 1 1 2.415-.646a1.25 1.25 0 0 1-2.415.646Z"/></svg>`;
<svg xmlns="http://www.w3.org/2000/svg" xmlns:xlink="http://www.w3.org/1999/xlink" aria-hidden="true" role="img" class="ninja-icon ninja-icon--fluent" width="18" height="18" preserveAspectRatio="xMidYMid meet" viewBox="0 0 24 24"><g fill="none"><path d="M16.749 2h4.554l.1.014l.099.028l.06.026c.08.034.153.085.219.15l.04.044l.044.057l.054.09l.039.09l.019.064l.014.064l.009.095v4.532a.75.75 0 0 1-1.493.102l-.007-.102V4.559l-6.44 6.44a.75.75 0 0 1-.976.073L13 11L9.97 8.09l-5.69 5.689a.75.75 0 0 1-1.133-.977l.073-.084l6.22-6.22a.75.75 0 0 1 .976-.072l.084.072l3.03 2.91L19.438 3.5h-2.69a.75.75 0 0 1-.742-.648l-.007-.102a.75.75 0 0 1 .648-.743L16.75 2zM3.75 17a.75.75 0 0 1 .75.75v3.5a.75.75 0 0 1-1.5 0v-3.5a.75.75 0 0 1 .75-.75zm5.75-3.25a.75.75 0 0 0-1.5 0v7.5a.75.75 0 0 0 1.5 0v-7.5zM13.75 15a.75.75 0 0 1 .75.75v5.5a.75.75 0 0 1-1.5 0v-5.5a.75.75 0 0 1 .75-.75zm5.75-4.25a.75.75 0 0 0-1.5 0v10.5a.75.75 0 0 0 1.5 0v-10.5z" fill="currentColor"></path></g></svg>

=====================chatwoot/app/javascript/shared/components/FluentIcon/icons.json
"emoji-outline": "M12 1.999c5.524 0 10.002 4.478 10.002 10.002 0 5.523-4.478 10.001-10.002 10.001-5.524 0-10.002-4.478-10.002-10.001C1.998 6.477 6.476 1.999 12 1.999Zm0 1.5a8.502 8.502 0 1 0 0 17.003A8.502 8.502 0 0 0 12 3.5ZM8.462 14.784A4.491 4.491 0 0 0 12 16.502a4.492 4.492 0 0 0 3.535-1.714.75.75 0 1 1 1.177.93A5.991 5.991 0 0 1 12 18.002a5.991 5.991 0 0 1-4.716-2.29.75.75 0 0 1 1.178-.928ZM9 8.75a1.25 1.25 0 1 1 0 2.499A1.25 1.25 0 0 1 9 8.75Zm6 0a1.25 1.25 0 1 1 0 2.499 1.25 1.25 0 0 1 0-2.499Z",

=====================================chatwoot/app/javascript/dashboard/i18n/locale/en/cannedMgmt.json
<p>Open the <a target=\"_blank\" href=\"https://www.chatwoot.com/hc/chatwoot-user-guide-cloud-version/articles/1677501325-how-to-create-saved-reply-templates-with-canned-responses\">Canned Responses handbook</a> in another tab for a helping hand.</p><p>Also, check out the all-new <a href=\"https://www.chatwoot.com/tools/canned-responses-library\" target=\"_blank\">Canned Responses Library</a>.</p>"


===================================chatwoot/app/javascript/dashboard/i18n/locale/am/login.json
  "LOGIN": {
    "TITLE": "Login to eXmanage",
    "EMAIL": {
      "LABEL": "Email",
      "PLACEHOLDER": "example@companyname.com",
      "ERROR": "Please enter a valid email address"
    },
    "PASSWORD": {
      "LABEL": "Password",
      "PLACEHOLDER": "Password"
    },
    "API": {
      "SUCCESS_MESSAGE": "Login successful",
      "ERROR_MESSAGE": "Could not connect to Woot server. Please try again.",
      "UNAUTH": "Username or password is incorrect. Please try again."
    },
    "OAUTH": {
      "GOOGLE_LOGIN": "Login with Google",
      "BUSINESS_ACCOUNTS_ONLY": "Please use your company email address to login",
      "NO_ACCOUNT_FOUND": "We couldn't find an account for your email address."
    },
    "FORGOT_PASSWORD": "Forgot your password?",
    "CREATE_NEW_ACCOUNT": "Create a new account",
    "SUBMIT": "Login"
  }
}
